module github.com/codekoala/gitlab-package-proxy

go 1.16

require (
	github.com/labstack/echo/v4 v4.5.0
	github.com/mattn/go-isatty v0.0.13 // indirect
	golang.org/x/crypto v0.0.0-20210711020723-a769d52b0f97 // indirect
	golang.org/x/net v0.0.0-20210726213435-c6fcb2dbf985 // indirect
	golang.org/x/sys v0.0.0-20210630005230-0f9fa26af87c // indirect
)
